1
1
1
1
1
1
1
1
1
1
1
1
1
1
1
1
1
1
1
1
1
1
1
1
1
1
1
1
1
1
1
1
1
1
1
1
1
1
1
1
1
1
1
1
1
1
1
1
1
1
1
1
1
1
1
1
1
1
1
1
1
1
1
1
1
1
1
1
1
1
1
1
1
1
1
1
1
1
1
1
1
1
1
1
1
1
1
1
1
1
1
1
1
1
1
1
1
1
1
1
1
1
1
1
1
1
1
1
1
1
1
1
1
1
1
1
1
1
1
1
1
1
1
1
1
1
1
1
1
1
1
1
1
1
1
1
1
1
1
1
1
1
1
1
1
1
1
1
1
1
1
1
1
1
1
1
1
1
1
1
1
1
1
1
1
1
1
1
1
1
1
1
1
1
1
1
1
1
1
1
1
1
1
1
1
1
1
1
1
1
1
1
1
1
1
1
1
1
1
1
1
1
1
1
1
1
1
1
1
1
1
1
1
1
1
1
1
1
1
1
1
1
1
1
1
1
1
1
0.99999999
0.99999999
0.99999999
0.99999999
0.99999999
0.99999998
0.99999998
0.99999998
0.99999997
0.99999997
0.99999996
0.99999996
0.99999995
0.99999995
0.99999994
0.99999993
0.99999992
0.99999991
0.99999989
0.99999988
0.99999987
0.99999985
0.99999983
0.99999981
0.99999979
0.99999977
0.99999974
0.99999971
0.99999968
0.99999965
0.99999961
0.99999957
0.99999953
0.99999949
0.99999944
0.99999938
0.99999933
0.99999927
0.9999992
0.99999913
0.99999906
0.99999898
0.9999989
0.99999881
0.99999872
0.99999861
0.9999985
0.99999839
0.99999827
0.99999814
0.999998
0.99999786
0.99999771
0.99999754
0.99999737
0.99999719
0.99999701
0.9999968
0.99999659
0.99999637
0.99999614
0.99999589
0.99999563
0.99999536
0.99999509
0.99999478
0.99999446
0.99999414
0.99999381
0.99999344
0.99999306
0.99999267
0.99999227
0.99999183
0.99999138
0.99999092
0.99999045
0.99998993
0.99998939
0.99998885
0.99998828
0.99998767
0.99998705
0.9999864
0.99998575
0.99998503
0.9999843
0.99998355
0.99998278
0.99998195
0.9999811
0.99998023
0.99997934
0.99997838
0.9999774
0.99997639
0.99997537
0.99997426
0.99997313
0.99997198
0.9999708
0.99996953
0.99996824
0.99996692
0.99996557
0.99996413
0.99996265
0.99996115
0.99995962
0.99995798
0.9999563
0.9999546
0.99995286
0.999951
0.99994911
0.99994718
0.99994522
0.99994313
0.99994099
0.99993882
0.99993661
0.99993426
0.99993187
0.99992943
0.99992695
0.99992432
0.99992164
0.99991891
0.99991614
0.9999132
0.99991021
0.99990717
0.99990407
0.9999008
0.99989747
0.99989409
0.99989065
0.99988701
0.99988332
0.99987957
0.99987575
0.99987173
0.99986764
0.99986349
0.99985927
0.99985482
0.99985031
0.99984572
0.99984107
0.99983617
0.99983119
0.99982614
0.99982102
0.99981563
0.99981016
0.99980461
0.99979898
0.99979307
0.99978707
0.99978098
0.99977481
0.99976834
0.99976177
0.99975511
0.99974836
0.99974128
0.99973411
0.99972684
0.99971946
0.99971174
0.99970392
0.99969599
0.99968796
0.99967955
0.99967103
0.9996624
0.99965366
0.99964452
0.99963526
0.99962588
0.99961639
0.99960647
0.99959643
0.99958625
0.99957596
0.99956521
0.99955433
0.99954331
0.99953216
0.99952053
0.99950876
0.99949685
0.99948479
0.99947223
0.99945952
0.99944665
0.99943364
0.99942008
0.99940637
0.9993925
0.99937846
0.99936386
0.99934909
0.99933415
0.99931904
0.99930332
0.99928743
0.99927136
0.99925511
0.99923823
0.99922115
0.99920389
0.99918643
0.99916831
0.99914998
0.99913146
0.99911273
0.9990933
0.99907365
0.9990538
0.99903373
0.99901292
0.99899188
0.99897062
0.99894915
0.99892688
0.99890438
0.99888164
0.99885867
0.99883487
0.99881083
0.99878654
0.99876201
0.9987366
0.99871093
0.998685
0.99865882
0.99863171
0.99860434
0.99857669
0.99854877
0.99851989
0.99849072
0.99846127
0.99843153
0.99840077
0.99836972
0.99833837
0.99830672
0.998274
0.99824096
0.99820762
0.99817396
0.99813918
0.99810407
0.99806864
0.99803288
0.99799594
0.99795865
0.99792102
0.99788306
0.99784385
0.99780428
0.99776436
0.99772408
0.99768249
0.99764054
0.99759821
0.9975555
0.99751143
0.99746697
0.99742212
0.99737688
0.99733021
0.99728313
0.99723563
0.99718773
0.99713834
0.99708851
0.99703826
0.99698758
0.99693533
0.99688263
0.99682949
0.9967759
0.99672067
0.99666497
0.9966088
0.99655217
0.99649382
0.99643498
0.99637565
0.99631584
0.99625422
0.9961921
0.99612947
0.99606632
0.9960013
0.99593574
0.99586965
0.99580303
0.99573444
0.99566529
0.99559559
0.99552534
0.99545301
0.99538011
0.99530664
0.99523259
0.99515637
0.99507955
0.99500212
0.9949241
0.99484381
0.99476289
0.99468134
0.99459917
0.99451461
0.99442941
0.99434355
0.99425704
0.99416804
0.99407835
0.99398799
0.99389695
0.99380329
0.99370892
0.99361384
0.99351806
0.99341953
0.99332027
0.99322026
0.99311952
0.9930159
0.99291151
0.99280636
0.99270044
0.99259148
0.99248173
0.99237119
0.99225984
0.99214531
0.99202995
0.99191375
0.99179673
0.99167636
0.99155512
0.99143301
0.99131004
0.99118355
0.99105615
0.99092785
0.99079865
0.99066573
0.99053188
0.99039708
0.99026134
0.99012169
0.98998106
0.98983944
0.98969685
0.98955012
0.98940236
0.98925359
0.98910379
0.98894962
0.98879438
0.98863808
0.98848071
0.9883187
0.98815558
0.98799134
0.987826
0.98765573
0.9874843
0.98731171
0.98713795
0.98695896
0.98677876
0.98659734
0.9864147
0.98622648
0.98603699
0.98584623
0.9856542
0.98545619
0.98525685
0.98505618
0.98485418
0.98464576
0.98443595
0.98422474
0.98401215
0.98379263
0.98357164
0.9833492
0.98312529
0.98289389
0.98266095
0.98242647
0.98219045
0.98194626
0.98170046
0.98145303
0.98120398
0.98094598
0.98068626
0.98042483
0.98016169
0.97988863
0.97961376
0.97933708
0.97905859
0.97876901
0.9784775
0.97818407
0.9778887
0.97758078
0.9772708
0.97695875
0.97664465
0.97631606
0.97598526
0.97565223
0.975317
0.97496466
0.97460992
0.97425277
0.97389322
0.9735128
0.97312972
0.97274401
0.97235564
0.9719405
0.97152237
0.97110128
0.97067722
0.97021574
0.96975081
0.96928242
0.9688106
0.9682768
0.96773868
0.96719623
0.96664947
0.96602287
0.96539071
0.96475301
0.96410977
0.96345196
0.96278848
0.96211934
0.96144455
0.96086079
0.96027289
0.95968085
0.95908467
0.95852485
0.95796145
0.95739447
0.95682392
0.95627331
0.95571943
0.95516228
0.95460186
0.95405424
0.95350355
0.95294979
0.95239297
0.95184494
0.951294
0.95074013
0.95018336
0.94963284
0.94907952
0.94852339
0.94796446
0.94741005
0.94685292
0.94629308
0.94573053
0.94517123
0.94460928
0.9440447
0.94347748
0.94291255
0.94234504
0.94177495
0.9412023
0.94063118
0.94005753
0.93948136
0.93890267
0.93832492
0.93774469
0.93716199
0.93657681
0.93599208
0.9354049
0.9348153
0.93422327
0.93363126
0.93303686
0.93244006
0.93184087
0.93124136
0.93063949
0.93003525
0.92942866
0.92882145
0.92821191
0.92760004
0.92698584
0.92637077
0.92575339
0.92513371
0.92451173
0.92388865
0.9232633
0.92263567
0.92200577
0.92137457
0.92074111
0.92010541
0.91946747
0.91882804
0.91818639
0.91754251
0.91689641
0.91624868
0.91559874
0.9149466
0.91429226
0.91363614
0.91297784
0.91231736
0.9116547
0.91099014
0.91032341
0.90965452
0.90898347
0.90831041
0.9076352
0.90695785
0.90627836
0.90559675
0.90491301
0.90422715
0.90353917
0.90284898
0.90215667
0.90146226
0.90076575
0.90006694
0.89936603
0.89866304
0.89795796
0.8972505
0.89654096
0.89582936
0.8951157
0.89439956
0.89368138
0.89296114
0.89223886
0.89151404
0.89078719
0.8900583
0.88932739
0.88859387
0.88785833
0.88712078
0.88638122
0.88563899
0.88489477
0.88414854
0.88340032
0.88264939
0.88189646
0.88114156
0.88038468
0.87962502
0.8788634
0.87809981
0.87733427
0.8765659
0.87579558
0.87502331
0.8742491
0.87347202
0.87269301
0.87191207
0.8711292
0.87034342
0.86955572
0.8687661
0.86797458
0.8671801
0.86638373
0.86558545
0.86478529
0.86398213
0.86317709
0.86237017
0.86156137
0.86074954
0.85993585
0.85912029
0.85830288
0.85748241
0.85666008
0.85583591
0.85500989
0.85418078
0.85334984
0.85251707
0.85168248
0.85084476
0.85000522
0.84916388
0.84832073
0.84747442
0.84662631
0.84577641
0.84492472
0.84406985
0.84321319
0.84235477
0.84149457
0.84063116
0.83976599
0.83889906
0.83803038
0.83715846
0.8362848
0.8354094
0.83453227
0.83365187
0.83276975
0.83188591
0.83100036
0.83011151
0.82922097
0.82832872
0.82743477
0.82653752
0.82563858
0.82473795
0.82383565
0.82293002
0.82202272
0.82111376
0.82020314
0.81928917
0.81837355
0.81745629
0.81653739
0.81561512
0.81469122
0.81376569
0.81283855
0.81190802
0.81097588
0.81004213
0.80910679
0.80816804
0.8072277
0.80628577
0.80534227
0.80439534
0.80344685
0.80249679
0.80154517
0.80059011
0.7996335
0.79867535
0.79771566
0.79675252
0.79578785
0.79482165
0.79385394
0.79288276
0.79191007
0.79093588
0.78996019
0.78898102
0.78800036
0.78701822
0.78603461
0.78504749
0.78405892
0.78306888
0.78207739
0.78108239
0.78008595
0.77908806
0.77808875
0.77708592
0.77608166
0.77507598
0.7740689
0.77305828
0.77204626
0.77103285
0.77001805
0.7689997
0.76797998
0.76695888
0.76593642
0.7649104
0.76388303
0.7628543
0.76182424
0.76079061
0.75975564
0.75871935
0.75768174
0.75664055
0.75559805
0.75455425
0.75350915
0.75246047
0.75141049
0.75035924
0.74930672
0.7482506
0.74719321
0.74613457
0.74507468
0.74401119
0.74294645
0.74188048
0.74081329
0.73974248
0.73867046
0.73759723
0.7365228
0.73544474
0.73436549
0.73328506
0.73220345
0.73111821
0.7300318
0.72894424
0.72785552
0.72676316
0.72566966
0.72457503
0.72347927
0.72237986
0.72127933
0.7201777
0.71907496
0.71796857
0.71686108
0.71575252
0.71464287
0.71352956
0.71241519
0.71129975
0.71018327
0.70906311
0.70794192
0.70681969
0.70569644
0.70456951
0.70344156
0.70231261
0.70118266
0.70004902
0.6989144
0.69777879
0.69664222
0.69550195
0.69436072
0.69321853
0.69207541
0.69092857
0.68978081
0.68863212
0.68748251
0.68632919
0.68517496
0.68401984
0.68286382
0.68170409
0.68054348
0.67938199
0.67821965
0.67705358
0.67588665
0.67471889
0.67355029
0.67237795
0.67120479
0.67003082
0.66885605
0.66767752
0.6664982
0.6653181
0.66413722
0.66295259
0.66176719
0.66058103
0.65939413
0.65820346
0.65701206
0.65581993
0.65462708
0.65343045
0.65223313
0.6510351
0.64983638
0.64863388
0.64743071
0.64622686
0.64502236
0.64381407
0.64260512
0.64139554
0.64018533
0.63897132
0.63775669
0.63654145
0.63532561
0.63410596
0.63288572
0.63166491
0.63044352
0.62921832
0.62799255
0.62676624
0.62553939
0.62430871
0.62307751
0.62184578
0.62061354
0.61937747
0.6181409
0.61690385
0.61566631
0.61442493
0.61318308
0.61194077
0.61069802
0.60945141
0.60820436
0.60695689
0.605709
0.60445724
0.60320508
0.60195252
0.60069958
0.59944276
0.59818557
0.59692801
0.5956701
0.5944083
0.59314616
0.59188369
0.5906209
0.5893542
0.5880872
0.58681989
0.5855523
0.58428079
0.58300901
0.58173696
0.58046465
0.57918841
0.57791193
0.57663522
0.57535828
0.5740774
0.57279631
0.57151501
0.57023353
0.56894809
0.56766247
0.56637668
0.56509074
0.56380082
0.56251076
0.56122056
0.55993024
0.55863593
0.55734152
0.556047
0.55475238
0.55345377
0.55215508
0.55085632
0.5495575
0.54825467
0.54695179
0.54564888
0.54434594
0.54303897
0.54173198
0.540425
0.53911803
0.537807
0.536496
0.53518503
0.53387411
0.53255909
0.53124413
0.52992923
0.52861442
0.52729548
0.52597664
0.52465791
0.52333928
0.52201652
0.52069389
0.51937139
0.51804904
0.51672253
0.51539619
0.51407002
0.51274403
0.51141386
0.51008389
0.50875413
0.50742459
0.50609084
0.50475733
0.50342406
0.50209105
0.5007538
0.49941683
0.49808014
0.49674373
0.49540308
0.49406273
0.49272269
0.49138298
0.49003899
0.48869535
0.48735205
0.48600912
0.48466188
0.48331502
0.48196855
0.48062248
0.47927207
0.47792208
0.47657251
0.47522338
0.47386988
0.47251683
0.47116425
0.46981214
0.46845563
0.46709962
0.4657441
0.46438909
0.46302965
0.46167074
0.46031237
0.45895455
0.45759226
0.45623053
0.45486938
0.45350882
0.45214375
0.45077929
0.44941544
0.44805222
0.44668446
0.44531733
0.44395087
0.44258506
0.44121467
0.43984497
0.43847596
0.43710764
0.43573471
0.4343625
0.43299101
0.43162027
0.43024486
0.42887022
0.42749634
0.42612324
0.42474543
0.42336842
0.42199223
0.42061684
0.41923671
0.41785741
0.41647896
0.41510137
0.41371898
0.41233746
0.41095684
0.4095771
0.40819252
0.40680886
0.40542612
0.40404432
0.40265762
0.40127188
0.3998871
0.3985033
0.39711455
0.39572679
0.39434004
0.39295431
0.39156356
0.39017386
0.3887852
0.3873976
0.38600493
0.38461334
0.38322284
0.38183344
0.38043891
0.37904549
0.37765321
0.37626207
0.37486573
0.37347056
0.37207656
0.37068374
0.36928565
0.36788877
0.36649311
0.36509867
0.3636989
0.36230037
0.3609031
0.3595071
0.35810569
0.35670557
0.35530676
0.35390925
0.35250625
0.35110459
0.34970428
0.34830532
0.34690079
0.34549764
0.34409588
0.34269552
0.3412895
0.33988491
0.33848176
0.33708004
0.33567258
0.33426659
0.33286208
0.33145906
0.3300502
0.32864286
0.32723705
0.32583276
0.32442255
0.32301389
0.32160681
0.3202013
0.31878976
0.31737983
0.31597152
0.31456483
0.31315201
0.31174084
0.31033133
0.3089235
0.30750942
0.30609704
0.30468638
0.30327743
0.30186212
0.30044857
0.29903677
0.29762674
0.29621024
0.29479553
0.29338263
0.29197154
0.29055386
0.28913803
0.28772405
0.28631194
0.2848931
0.28347615
0.28206112
0.280648
0.27922802
0.27780999
0.27639391
0.2749798
0.2735587
0.2721396
0.2707225
0.26930742
0.2678852
0.26646503
0.26504693
0.26363089
0.26220757
0.26078635
0.25936725
0.25795026
0.25652584
0.25510358
0.25368349
0.25226557
0.25084006
0.24941676
0.24799569
0.24657684
0.24515024
0.24372591
0.24230386
0.24088409
0.23945641
0.23803106
0.23660804
0.23518735
0.2337586
0.23233222
0.23090824
0.22948665
0.22807089
0.22665753
0.22524656
0.223838
0.22244072
0.22104583
0.21965332
0.21826321
0.21688405
0.21550726
0.21413285
0.21276083
0.21139939
0.21004032
0.20868362
0.20732929
0.20598521
0.20464348
0.20330411
0.2019671
0.20064002
0.19931528
0.19799288
0.19667284
0.19536241
0.19405432
0.19274856
0.19144514
0.19015104
0.18885927
0.18756981
0.18628269
0.18500461
0.18372884
0.18245538
0.18118423
0.17992186
0.17866179
0.17740401
0.17614854
0.17490158
0.17365691
0.17241453
0.17117443
0.1699426
0.16871305
0.16748576
0.16626075
0.16504377
0.16382905
0.16261658
0.16140637
0.16020396
0.15900379
0.15780587
0.15661019
0.15542207
0.15423618
0.15305253
0.1518711
0.15069701
0.14952513
0.14835547
0.14718803
0.14602769
0.14486955
0.14371362
0.14255989
0.14141303
0.14026837
0.13912589
0.1379856
0.13685195
0.13572048
0.13459118
0.13346406
0.13234334
0.13122479
0.13010839
0.12899416
0.12788609
0.12678016
0.12567638
0.12457476
0.12347903
0.12238544
0.12129398
0.12020466
0.11912097
0.1180394
0.11695996
0.11588264
0.11481065
0.11374078
0.11267302
0.11160737
0.11054675
0.10948822
0.10843179
0.10737746
0.10632781
0.10528025
0.10423478
0.10319139
0.1021523
0.10111528
0.10008034
0.09904747
0.098018458
0.096991513
0.095966636
0.094943825
0.093924357
0.092906949
0.091891601
0.090878311
0.089867762
0.088859267
0.087852826
0.086848437
0.085846065
0.084845744
0.083847473
0.082851252
0.081856154
0.080863107
0.07987211
0.078883162
0.077894214
0.07690732
0.07592248
0.074939692
0.073955447
0.072973267
0.071993149
0.071015092
0.070033624
0.069054238
0.068076932
0.067101705
0.066120338
0.065141082
0.064163934
0.063188894
0.062203701
0.061220665
0.060239784
0.059261055
0.058265836
0.057272849
0.05628209
0.055293558
0.054277412
0.053263625
0.052252194
0.051243116
0.050218521
0.049196358
0.048176623
0.047159314
0.046174071
0.045191108
0.044210423
0.043232011
0.042287015
0.041344145
0.040403397
0.039464769
0.038560097
0.037657399
0.036756669
0.035857908
0.034993575
0.034131064
0.033270373
0.032411498
0.031619866
0.03082978
0.030041237
0.029254235
0.028540471
0.027827976
0.027116748
0.026406786
0.025754108
0.025102499
0.02445196
0.023802489
0.023200454
0.022599336
0.021999135
0.021399851
0.020841807
0.020284558
0.019728103
0.01917244
0.0186538
0.018135851
0.017618593
0.017102023
0.016619441
0.01613746
0.015656081
0.015175302
0.014726243
0.014277708
0.013829696
0.013382207
0.012964702
0.012547652
0.012131057
0.011714916
0.011327409
0.010940295
0.010553575
0.010167247
0.0098084943
0.0094500799
0.009092004
0.0087342664
0.0084032711
0.0080725654
0.0077421489
0.0074120213
0.0071079893
0.0068042024
0.0065006603
0.0061973628
0.005919671
0.0056421842
0.0053649022
0.005087825
0.0048360027
0.0045843495
0.0043328651
0.0040815496
0.0038552695
0.0036291262
0.0034031196
0.0031772496
0.0029763312
0.0027755208
0.0025748184
0.0023742239
0.0021986507
0.00202316
0.001847752
0.0016724265
0.001522392
0.0013724179
0.0012225042
0.0010726509
0.00097566159
0.00087869759
0.00078175886
0.0006848454
0.00060940039
0.00053397069
0.00045855629
0.00038315719
0.00033049665
0.00027784357
0.00022519795
0.0001725598
0.00014099541
0.0001094337
7.7874681e-05
4.6318339e-05
3.4928125e-05
2.353826e-05
1.2148745e-05
7.5957892e-07
